{
  "status": "ok",
  "order": {
    "id": "c95937a6-4441-4807-9dce-e0db7c3da0a9",
    "oid": 2006,
    "canceled": "no",
    "show": "no",
    "complete": "no",
    "paid": "no",
    "signature": "no",
    "osorder": "no",
    "office": "95cc3d2e-366f-5959-b3aa-105c100a6285",
    "datetime": "2015-03-02 08:00:00",
    "duration": 300,
    "createddatetime": "2015-03-02 14:44:53",
    "createdby": "0fe02d69-975a-4c38-816a-4f9a88283762",
    "scheduleddatetime": "",
    "osscheduleddatetime": "",
    "confirmeddatetime": "",
    "deleteddatetime": "2015-03-04 15:15:37",
    "canceleddatetime": "",
    "completeddatetime": "",
    "initialcompleteddatetime": "",
    "scheduledby": "",
    "canceledby": "",
    "confirmedby": "",
    "deletedby": "d0feb7f3-5e83-5a2f-b1ba-3634d1f6cad8",
    "initialcompletedby": "",
    "completedby": "",
    "referreason": "",
    "referredreason": "",
    "cancelreason": "",
    "cancelreasonstring": "",
    "client": "40eddf2a-f3e5-409f-98e3-0e0496c89ad1",
    "buyersagent": "",
    "sellersagent": "",
    "buyersagentcontactnotes": "",
    "sellersagentcontactnotes": "",
    "escrowofficer": "",
    "squarefeet": "2156",
    "yearbuilt": "1979",
    "totalfee": "382.20",
    "reportnumber": "172151573-W-BUFFINGTON-ST-UPLAND-CA-91784",
    "address1": "1573 W. Buffington St",
    "address2": "",
    "city": "Upland",
    "state": "20422d3b-bf40-4ff8-ab69-0eceef974ad8",
    "stateabbreviation": "CA",
    "zip": "91784",
    "county": "San Bernardino County",
    "latitude": 0,
    "longitude": 0,
    "majorcrossstreets": "",
    "mapurl": "https://maps.google.com/maps?q=1573+W.+Buffington+St++Upland+CA+91784+",
    "policynumber": null,
    "policyholder": null,
    "inspector1": "0fe02d69-975a-4c38-816a-4f9a88283762",
    "inspector2": "",
    "inspector3": "",
    "inspector4": "",
    "inspector5": "",
    "inspector6": "",
    "inspector7": "",
    "inspector8": "",
    "inspector9": "",
    "inspector10": "",
    "inspector1requested": "yes",
    "inspector2requested": "no",
    "inspector3requested": "no",
    "inspector4requested": "no",
    "inspector5requested": "no",
    "inspector6requested": "no",
    "inspector7requested": "no",
    "inspector8requested": "no",
    "inspector9requested": "no",
    "inspector10requested": "no",
    "ordertype": "db9582ee-6116-4833-8429-c72e9f0cabc4",
    "foundation": "3576cd36-780e-11e1-bfb4-b15dbfa5fbfd",
    "costcenter": "",
    "fees": [
      {
        "id": "f9437dce-513c-11e2-bfb4-b15dbfa5fbfd",
        "amount": "350.00",
        "outsourceamount": "0.00",
        "name": "Standard Inspection Fee"
      },
      {
        "id": "889def31-ba0b-4ef1-af1e-71523dee7484",
        "amount": "0.00",
        "outsourceamount": "0.00",
        "name": "Radon Drop Off"
      },
      {
        "id": "1f05c0ba-7692-4c2d-b8e8-581d6f8d73a3",
        "amount": "0.00",
        "outsourceamount": "0.00",
        "name": "Age Fee"
      },
      {
        "id": "e006ce35-e4f4-4e51-9f5d-0d2649bab74a",
        "amount": "0.00",
        "outsourceamount": "0.00",
        "name": "Radon Pickup"
      },
      {
        "id": "f9438b2a-513c-11e2-bfb4-b15dbfa5fbfd",
        "amount": "0.00",
        "outsourceamount": "0.00",
        "name": "Condo/Townhome Disount"
      },
      {
        "id": "d72f8cc4-c9eb-42a5-a205-0bc2c9a7e3f3",
        "amount": "0.00",
        "outsourceamount": "0.00",
        "name": "Termite with Home Inspection"
      },
      {
        "id": "f9437f68-513c-11e2-bfb4-b15dbfa5fbfd",
        "amount": "0.00",
        "outsourceamount": "0.00",
        "name": "Pool / Spa Inspection Fee"
      },
      {
        "id": "4e70bb32-0157-47fc-aa94-2ebcab105def",
        "amount": "0.00",
        "outsourceamount": "0.00",
        "name": "Radon Inspection no HI"
      },
      {
        "id": "dd8a4006-3f93-4744-8caf-ae8aa428e481",
        "amount": "0.00",
        "outsourceamount": "0.00",
        "name": "Out Building"
      },
      {
        "id": "9dceb03c-b195-410c-8b9d-f06a131e66fc",
        "amount": "0.00",
        "outsourceamount": "0.00",
        "name": "Mold Samples (3)"
      },
      {
        "id": "93ee6a1f-c7af-475f-b69b-68ddc1510439",
        "amount": "0.00",
        "outsourceamount": "0.00",
        "name": "Premier Package Includes 0-2500 SQ FT, Radon, Mold and Termite "
      },
      {
        "id": "50d89bff-945f-405f-b094-8a7c3616b5ff",
        "amount": "0.00",
        "outsourceamount": "0.00",
        "name": "Mold Inspection"
      },
      {
        "id": "f94385b2-513c-11e2-bfb4-b15dbfa5fbfd",
        "amount": "0.00",
        "outsourceamount": "0.00",
        "name": "Discount"
      },
      {
        "id": "d7c136fc-b90f-4044-b8bd-4874776138de",
        "amount": "0.00",
        "outsourceamount": "0.00",
        "name": "Bedroom Fee"
      },
      {
        "id": "eb2593ea-b29f-4169-85f3-086569f6530e",
        "amount": "0.00",
        "outsourceamount": "0.00",
        "name": "Water Quality"
      }
    ],
    "contacts": [],
    "propertyoccupied": "no",
    "utilitieson": "no",
    "gatecode": "",
    "controls": [
      {
        "name": "# of bathrooms",
        "label": "# of bathrooms",
        "value": "3\r"
      }
    ],
    "services": [],
    "modified": "2015-03-04T20:15:37+00:00"
  },
  "message": ""
}
